Descriptive results
…
Cluster description

# A tibble: 25 × 9
# Groups:   Cluster_Label [5]
   Occurrences Words                  Cluster Color     Cluster_Label      Cluster_Frequency btw_centrality clos_central…¹ pager…²
         <dbl> <chr>                    <dbl> <chr>     <chr>                          <dbl>          <dbl>          <dbl>   <dbl>
 1        1301 mediterranean diet           1 #E41A1C80 mediterranean diet              4102          0.342        0.00157 0.0335 
 2         436 diet                         1 #E41A1C80 mediterranean diet              4102         37.6          0.00207 0.00908
 3         319 obesity                      1 #E41A1C80 mediterranean diet              4102         42.6          0.00208 0.0110 
 4         254 inflammation                 1 #E41A1C80 mediterranean diet              4102         47.5          0.00213 0.00701
 5         181 cardiovascular disease       1 #E41A1C80 mediterranean diet              4102        118.           0.00217 0.00618
 6         123 polyphenols                  2 #377EB880 polyphenols                     1052         38.1          0.00210 0.00242
 7         117 alzheimer's disease          2 #377EB880 polyphenols                     1052         66.2          0.00214 0.00252
 8         102 antioxidants                 2 #377EB880 polyphenols                     1052        112.           0.00210 0.00218
 9          65 diabetes                     2 #377EB880 polyphenols                     1052        101.           0.00207 0.00152
10          56 hydroxytyrosol               2 #377EB880 polyphenols                     1052        297.           0.00222 0.00179
# … with 15 more rows, and abbreviated variable names ¹​clos_centrality, ²​pagerank_centrality
…
